-- Merging decision tree log ---
manifest
ADDED from C:\Dispositivos_Proyectos\Source_Code_Ch_6\6_10-11_MediaStore\src\main\AndroidManifest.xml:2:1-31:12
INJECTED from C:\Dispositivos_Proyectos\Source_Code_Ch_6\6_10-11_MediaStore\src\main\AndroidManifest.xml:2:1-31:12
INJECTED from C:\Dispositivos_Proyectos\Source_Code_Ch_6\6_10-11_MediaStore\src\main\AndroidManifest.xml:2:1-31:12
INJECTED from C:\Dispositivos_Proyectos\Source_Code_Ch_6\6_10-11_MediaStore\src\main\AndroidManifest.xml:2:1-31:12
INJECTED from C:\Dispositivos_Proyectos\Source_Code_Ch_6\6_10-11_MediaStore\src\main\AndroidManifest.xml:2:1-31:12
INJECTED from C:\Dispositivos_Proyectos\Source_Code_Ch_6\6_10-11_MediaStore\src\main\AndroidManifest.xml:2:1-31:12
INJECTED from C:\Dispositivos_Proyectos\Source_Code_Ch_6\6_10-11_MediaStore\src\main\AndroidManifest.xml:2:1-31:12
	package
		ADDED from C:\Dispositivos_Proyectos\Source_Code_Ch_6\6_10-11_MediaStore\src\main\AndroidManifest.xml:3:11-50
		INJECTED from C:\Dispositivos_Proyectos\Source_Code_Ch_6\6_10-11_MediaStore\src\main\AndroidManifest.xml
		INJECTED from C:\Dispositivos_Proyectos\Source_Code_Ch_6\6_10-11_MediaStore\src\main\AndroidManifest.xml
	android:versionName
		ADDED from C:\Dispositivos_Proyectos\Source_Code_Ch_6\6_10-11_MediaStore\src\main\AndroidManifest.xml:5:11-36
		INJECTED from C:\Dispositivos_Proyectos\Source_Code_Ch_6\6_10-11_MediaStore\src\main\AndroidManifest.xml
		INJECTED from C:\Dispositivos_Proyectos\Source_Code_Ch_6\6_10-11_MediaStore\src\main\AndroidManifest.xml
	xmlns:android
		ADDED from C:\Dispositivos_Proyectos\Source_Code_Ch_6\6_10-11_MediaStore\src\main\AndroidManifest.xml:2:11-69
	android:versionCode
		ADDED from C:\Dispositivos_Proyectos\Source_Code_Ch_6\6_10-11_MediaStore\src\main\AndroidManifest.xml:4:11-34
		INJECTED from C:\Dispositivos_Proyectos\Source_Code_Ch_6\6_10-11_MediaStore\src\main\AndroidManifest.xml
		INJECTED from C:\Dispositivos_Proyectos\Source_Code_Ch_6\6_10-11_MediaStore\src\main\AndroidManifest.xml
uses-permission#android.permission.WRITE_EXTERNAL_STORAGE
ADDED from C:\Dispositivos_Proyectos\Source_Code_Ch_6\6_10-11_MediaStore\src\main\AndroidManifest.xml:8:5-80
	android:name
		ADDED from C:\Dispositivos_Proyectos\Source_Code_Ch_6\6_10-11_MediaStore\src\main\AndroidManifest.xml:8:22-78
application
ADDED from C:\Dispositivos_Proyectos\Source_Code_Ch_6\6_10-11_MediaStore\src\main\AndroidManifest.xml:10:5-30:19
	android:label
		ADDED from C:\Dispositivos_Proyectos\Source_Code_Ch_6\6_10-11_MediaStore\src\main\AndroidManifest.xml:12:9-41
	android:icon
		ADDED from C:\Dispositivos_Proyectos\Source_Code_Ch_6\6_10-11_MediaStore\src\main\AndroidManifest.xml:11:9-45
activity#com.androidrecipes.mediastore.MediaActivity
ADDED from C:\Dispositivos_Proyectos\Source_Code_Ch_6\6_10-11_MediaStore\src\main\AndroidManifest.xml:13:9-20:20
	android:label
		ADDED from C:\Dispositivos_Proyectos\Source_Code_Ch_6\6_10-11_MediaStore\src\main\AndroidManifest.xml:15:13-41
	android:name
		ADDED from C:\Dispositivos_Proyectos\Source_Code_Ch_6\6_10-11_MediaStore\src\main\AndroidManifest.xml:14:13-42
intent-filter#action:name:android.intent.action.MAIN+category:name:android.intent.category.LAUNCHER
ADDED from C:\Dispositivos_Proyectos\Source_Code_Ch_6\6_10-11_MediaStore\src\main\AndroidManifest.xml:16:13-19:29
action#android.intent.action.MAIN
ADDED from C:\Dispositivos_Proyectos\Source_Code_Ch_6\6_10-11_MediaStore\src\main\AndroidManifest.xml:17:17-68
	android:name
		ADDED from C:\Dispositivos_Proyectos\Source_Code_Ch_6\6_10-11_MediaStore\src\main\AndroidManifest.xml:17:25-66
category#android.intent.category.LAUNCHER
ADDED from C:\Dispositivos_Proyectos\Source_Code_Ch_6\6_10-11_MediaStore\src\main\AndroidManifest.xml:18:17-76
	android:name
		ADDED from C:\Dispositivos_Proyectos\Source_Code_Ch_6\6_10-11_MediaStore\src\main\AndroidManifest.xml:18:27-74
activity#com.androidrecipes.mediastore.StoreActivity
ADDED from C:\Dispositivos_Proyectos\Source_Code_Ch_6\6_10-11_MediaStore\src\main\AndroidManifest.xml:21:9-28:20
	android:label
		ADDED from C:\Dispositivos_Proyectos\Source_Code_Ch_6\6_10-11_MediaStore\src\main\AndroidManifest.xml:23:13-39
	android:name
		ADDED from C:\Dispositivos_Proyectos\Source_Code_Ch_6\6_10-11_MediaStore\src\main\AndroidManifest.xml:22:13-42
uses-sdk
INJECTED from C:\Dispositivos_Proyectos\Source_Code_Ch_6\6_10-11_MediaStore\src\main\AndroidManifest.xml reason: use-sdk injection requested
INJECTED from C:\Dispositivos_Proyectos\Source_Code_Ch_6\6_10-11_MediaStore\src\main\AndroidManifest.xml
INJECTED from C:\Dispositivos_Proyectos\Source_Code_Ch_6\6_10-11_MediaStore\src\main\AndroidManifest.xml
INJECTED from C:\Dispositivos_Proyectos\Source_Code_Ch_6\6_10-11_MediaStore\src\main\AndroidManifest.xml
INJECTED from C:\Dispositivos_Proyectos\Source_Code_Ch_6\6_10-11_MediaStore\src\main\AndroidManifest.xml
	android:targetSdkVersion
		INJECTED from C:\Dispositivos_Proyectos\Source_Code_Ch_6\6_10-11_MediaStore\src\main\AndroidManifest.xml
		ADDED from C:\Dispositivos_Proyectos\Source_Code_Ch_6\6_10-11_MediaStore\src\main\AndroidManifest.xml
		INJECTED from C:\Dispositivos_Proyectos\Source_Code_Ch_6\6_10-11_MediaStore\src\main\AndroidManifest.xml
	android:minSdkVersion
		INJECTED from C:\Dispositivos_Proyectos\Source_Code_Ch_6\6_10-11_MediaStore\src\main\AndroidManifest.xml
		ADDED from C:\Dispositivos_Proyectos\Source_Code_Ch_6\6_10-11_MediaStore\src\main\AndroidManifest.xml
		INJECTED from C:\Dispositivos_Proyectos\Source_Code_Ch_6\6_10-11_MediaStore\src\main\AndroidManifest.xml
