-- Merging decision tree log ---
manifest
ADDED from C:\Dispositivos_Proyectos\Code_Samples_Chapter_2\2_16_DragTouch\src\main\AndroidManifest.xml:2:1-21:12
INJECTED from C:\Dispositivos_Proyectos\Code_Samples_Chapter_2\2_16_DragTouch\src\main\AndroidManifest.xml:2:1-21:12
INJECTED from C:\Dispositivos_Proyectos\Code_Samples_Chapter_2\2_16_DragTouch\src\main\AndroidManifest.xml:2:1-21:12
INJECTED from C:\Dispositivos_Proyectos\Code_Samples_Chapter_2\2_16_DragTouch\src\main\AndroidManifest.xml:2:1-21:12
INJECTED from C:\Dispositivos_Proyectos\Code_Samples_Chapter_2\2_16_DragTouch\src\main\AndroidManifest.xml:2:1-21:12
INJECTED from C:\Dispositivos_Proyectos\Code_Samples_Chapter_2\2_16_DragTouch\src\main\AndroidManifest.xml:2:1-21:12
INJECTED from C:\Dispositivos_Proyectos\Code_Samples_Chapter_2\2_16_DragTouch\src\main\AndroidManifest.xml:2:1-21:12
	package
		ADDED from C:\Dispositivos_Proyectos\Code_Samples_Chapter_2\2_16_DragTouch\src\main\AndroidManifest.xml:3:11-49
		INJECTED from C:\Dispositivos_Proyectos\Code_Samples_Chapter_2\2_16_DragTouch\src\main\AndroidManifest.xml
		INJECTED from C:\Dispositivos_Proyectos\Code_Samples_Chapter_2\2_16_DragTouch\src\main\AndroidManifest.xml
	android:versionName
		ADDED from C:\Dispositivos_Proyectos\Code_Samples_Chapter_2\2_16_DragTouch\src\main\AndroidManifest.xml:5:11-36
		INJECTED from C:\Dispositivos_Proyectos\Code_Samples_Chapter_2\2_16_DragTouch\src\main\AndroidManifest.xml
		INJECTED from C:\Dispositivos_Proyectos\Code_Samples_Chapter_2\2_16_DragTouch\src\main\AndroidManifest.xml
	xmlns:android
		ADDED from C:\Dispositivos_Proyectos\Code_Samples_Chapter_2\2_16_DragTouch\src\main\AndroidManifest.xml:2:11-69
	android:versionCode
		ADDED from C:\Dispositivos_Proyectos\Code_Samples_Chapter_2\2_16_DragTouch\src\main\AndroidManifest.xml:4:11-34
		INJECTED from C:\Dispositivos_Proyectos\Code_Samples_Chapter_2\2_16_DragTouch\src\main\AndroidManifest.xml
		INJECTED from C:\Dispositivos_Proyectos\Code_Samples_Chapter_2\2_16_DragTouch\src\main\AndroidManifest.xml
application
ADDED from C:\Dispositivos_Proyectos\Code_Samples_Chapter_2\2_16_DragTouch\src\main\AndroidManifest.xml:7:5-19:19
	android:label
		ADDED from C:\Dispositivos_Proyectos\Code_Samples_Chapter_2\2_16_DragTouch\src\main\AndroidManifest.xml:9:9-36
	android:icon
		ADDED from C:\Dispositivos_Proyectos\Code_Samples_Chapter_2\2_16_DragTouch\src\main\AndroidManifest.xml:8:9-45
	android:theme
		ADDED from C:\Dispositivos_Proyectos\Code_Samples_Chapter_2\2_16_DragTouch\src\main\AndroidManifest.xml:10:9-40
activity#com.androidrecipes.dragtouch.DragTouchActivity
ADDED from C:\Dispositivos_Proyectos\Code_Samples_Chapter_2\2_16_DragTouch\src\main\AndroidManifest.xml:11:9-18:20
	android:name
		ADDED from C:\Dispositivos_Proyectos\Code_Samples_Chapter_2\2_16_DragTouch\src\main\AndroidManifest.xml:12:13-46
intent-filter#action:name:android.intent.action.MAIN+category:name:android.intent.category.LAUNCHER
ADDED from C:\Dispositivos_Proyectos\Code_Samples_Chapter_2\2_16_DragTouch\src\main\AndroidManifest.xml:13:13-17:29
action#android.intent.action.MAIN
ADDED from C:\Dispositivos_Proyectos\Code_Samples_Chapter_2\2_16_DragTouch\src\main\AndroidManifest.xml:14:17-68
	android:name
		ADDED from C:\Dispositivos_Proyectos\Code_Samples_Chapter_2\2_16_DragTouch\src\main\AndroidManifest.xml:14:25-66
category#android.intent.category.LAUNCHER
ADDED from C:\Dispositivos_Proyectos\Code_Samples_Chapter_2\2_16_DragTouch\src\main\AndroidManifest.xml:16:17-76
	android:name
		ADDED from C:\Dispositivos_Proyectos\Code_Samples_Chapter_2\2_16_DragTouch\src\main\AndroidManifest.xml:16:27-74
uses-sdk
INJECTED from C:\Dispositivos_Proyectos\Code_Samples_Chapter_2\2_16_DragTouch\src\main\AndroidManifest.xml reason: use-sdk injection requested
INJECTED from C:\Dispositivos_Proyectos\Code_Samples_Chapter_2\2_16_DragTouch\src\main\AndroidManifest.xml
INJECTED from C:\Dispositivos_Proyectos\Code_Samples_Chapter_2\2_16_DragTouch\src\main\AndroidManifest.xml
INJECTED from C:\Dispositivos_Proyectos\Code_Samples_Chapter_2\2_16_DragTouch\src\main\AndroidManifest.xml
INJECTED from C:\Dispositivos_Proyectos\Code_Samples_Chapter_2\2_16_DragTouch\src\main\AndroidManifest.xml
	android:targetSdkVersion
		INJECTED from C:\Dispositivos_Proyectos\Code_Samples_Chapter_2\2_16_DragTouch\src\main\AndroidManifest.xml
		ADDED from C:\Dispositivos_Proyectos\Code_Samples_Chapter_2\2_16_DragTouch\src\main\AndroidManifest.xml
		INJECTED from C:\Dispositivos_Proyectos\Code_Samples_Chapter_2\2_16_DragTouch\src\main\AndroidManifest.xml
	android:minSdkVersion
		INJECTED from C:\Dispositivos_Proyectos\Code_Samples_Chapter_2\2_16_DragTouch\src\main\AndroidManifest.xml
		ADDED from C:\Dispositivos_Proyectos\Code_Samples_Chapter_2\2_16_DragTouch\src\main\AndroidManifest.xml
		INJECTED from C:\Dispositivos_Proyectos\Code_Samples_Chapter_2\2_16_DragTouch\src\main\AndroidManifest.xml
