-- Merging decision tree log ---
manifest
ADDED from C:\Dispositivos_Proyectos\Chapter04_Source_Code\4_05_ImageCapture\src\main\AndroidManifest.xml:2:1-22:12
INJECTED from C:\Dispositivos_Proyectos\Chapter04_Source_Code\4_05_ImageCapture\src\main\AndroidManifest.xml:2:1-22:12
INJECTED from C:\Dispositivos_Proyectos\Chapter04_Source_Code\4_05_ImageCapture\src\main\AndroidManifest.xml:2:1-22:12
INJECTED from C:\Dispositivos_Proyectos\Chapter04_Source_Code\4_05_ImageCapture\src\main\AndroidManifest.xml:2:1-22:12
INJECTED from C:\Dispositivos_Proyectos\Chapter04_Source_Code\4_05_ImageCapture\src\main\AndroidManifest.xml:2:1-22:12
INJECTED from C:\Dispositivos_Proyectos\Chapter04_Source_Code\4_05_ImageCapture\src\main\AndroidManifest.xml:2:1-22:12
INJECTED from C:\Dispositivos_Proyectos\Chapter04_Source_Code\4_05_ImageCapture\src\main\AndroidManifest.xml:2:1-22:12
	package
		ADDED from C:\Dispositivos_Proyectos\Chapter04_Source_Code\4_05_ImageCapture\src\main\AndroidManifest.xml:3:11-52
		INJECTED from C:\Dispositivos_Proyectos\Chapter04_Source_Code\4_05_ImageCapture\src\main\AndroidManifest.xml
		INJECTED from C:\Dispositivos_Proyectos\Chapter04_Source_Code\4_05_ImageCapture\src\main\AndroidManifest.xml
	android:versionName
		ADDED from C:\Dispositivos_Proyectos\Chapter04_Source_Code\4_05_ImageCapture\src\main\AndroidManifest.xml:5:11-36
		INJECTED from C:\Dispositivos_Proyectos\Chapter04_Source_Code\4_05_ImageCapture\src\main\AndroidManifest.xml
		INJECTED from C:\Dispositivos_Proyectos\Chapter04_Source_Code\4_05_ImageCapture\src\main\AndroidManifest.xml
	xmlns:android
		ADDED from C:\Dispositivos_Proyectos\Chapter04_Source_Code\4_05_ImageCapture\src\main\AndroidManifest.xml:2:11-69
	android:versionCode
		ADDED from C:\Dispositivos_Proyectos\Chapter04_Source_Code\4_05_ImageCapture\src\main\AndroidManifest.xml:4:11-34
		INJECTED from C:\Dispositivos_Proyectos\Chapter04_Source_Code\4_05_ImageCapture\src\main\AndroidManifest.xml
		INJECTED from C:\Dispositivos_Proyectos\Chapter04_Source_Code\4_05_ImageCapture\src\main\AndroidManifest.xml
uses-permission#android.permission.WRITE_EXTERNAL_STORAGE
ADDED from C:\Dispositivos_Proyectos\Chapter04_Source_Code\4_05_ImageCapture\src\main\AndroidManifest.xml:7:5-97
	android:name
		ADDED from C:\Dispositivos_Proyectos\Chapter04_Source_Code\4_05_ImageCapture\src\main\AndroidManifest.xml:7:22-78
application
ADDED from C:\Dispositivos_Proyectos\Chapter04_Source_Code\4_05_ImageCapture\src\main\AndroidManifest.xml:9:5-21:19
	android:label
		ADDED from C:\Dispositivos_Proyectos\Chapter04_Source_Code\4_05_ImageCapture\src\main\AndroidManifest.xml:11:9-41
	android:icon
		ADDED from C:\Dispositivos_Proyectos\Chapter04_Source_Code\4_05_ImageCapture\src\main\AndroidManifest.xml:10:9-38
activity#com.androidrecipes.imagecapture.MyActivity
ADDED from C:\Dispositivos_Proyectos\Chapter04_Source_Code\4_05_ImageCapture\src\main\AndroidManifest.xml:12:9-19:20
	android:label
		ADDED from C:\Dispositivos_Proyectos\Chapter04_Source_Code\4_05_ImageCapture\src\main\AndroidManifest.xml:14:13-45
	android:name
		ADDED from C:\Dispositivos_Proyectos\Chapter04_Source_Code\4_05_ImageCapture\src\main\AndroidManifest.xml:13:13-39
intent-filter#action:name:android.intent.action.MAIN+category:name:android.intent.category.LAUNCHER
ADDED from C:\Dispositivos_Proyectos\Chapter04_Source_Code\4_05_ImageCapture\src\main\AndroidManifest.xml:15:13-18:29
action#android.intent.action.MAIN
ADDED from C:\Dispositivos_Proyectos\Chapter04_Source_Code\4_05_ImageCapture\src\main\AndroidManifest.xml:16:17-68
	android:name
		ADDED from C:\Dispositivos_Proyectos\Chapter04_Source_Code\4_05_ImageCapture\src\main\AndroidManifest.xml:16:25-66
category#android.intent.category.LAUNCHER
ADDED from C:\Dispositivos_Proyectos\Chapter04_Source_Code\4_05_ImageCapture\src\main\AndroidManifest.xml:17:17-76
	android:name
		ADDED from C:\Dispositivos_Proyectos\Chapter04_Source_Code\4_05_ImageCapture\src\main\AndroidManifest.xml:17:27-74
uses-sdk
INJECTED from C:\Dispositivos_Proyectos\Chapter04_Source_Code\4_05_ImageCapture\src\main\AndroidManifest.xml reason: use-sdk injection requested
INJECTED from C:\Dispositivos_Proyectos\Chapter04_Source_Code\4_05_ImageCapture\src\main\AndroidManifest.xml
INJECTED from C:\Dispositivos_Proyectos\Chapter04_Source_Code\4_05_ImageCapture\src\main\AndroidManifest.xml
INJECTED from C:\Dispositivos_Proyectos\Chapter04_Source_Code\4_05_ImageCapture\src\main\AndroidManifest.xml
INJECTED from C:\Dispositivos_Proyectos\Chapter04_Source_Code\4_05_ImageCapture\src\main\AndroidManifest.xml
	android:targetSdkVersion
		INJECTED from C:\Dispositivos_Proyectos\Chapter04_Source_Code\4_05_ImageCapture\src\main\AndroidManifest.xml
		ADDED from C:\Dispositivos_Proyectos\Chapter04_Source_Code\4_05_ImageCapture\src\main\AndroidManifest.xml
		INJECTED from C:\Dispositivos_Proyectos\Chapter04_Source_Code\4_05_ImageCapture\src\main\AndroidManifest.xml
	android:minSdkVersion
		INJECTED from C:\Dispositivos_Proyectos\Chapter04_Source_Code\4_05_ImageCapture\src\main\AndroidManifest.xml
		ADDED from C:\Dispositivos_Proyectos\Chapter04_Source_Code\4_05_ImageCapture\src\main\AndroidManifest.xml
		INJECTED from C:\Dispositivos_Proyectos\Chapter04_Source_Code\4_05_ImageCapture\src\main\AndroidManifest.xml
